jonson
…
mystopwords <- tibble(word = c("","la","t","n","thou","'ll","ay","thy"))

tidy_epicoene <- epicoene %>%
  unnest_tokens(word, text) %>%
   anti_join(stop_words) %>%
   anti_join(mystopwords)

lk olarak unnest_tokens ile eseri yani verimizi, her satrda tek bir kelime olacak ekilde bldk.Sonrasnda ise stop_words ile duraklama kelimeleri olarak adlandrlan the,of,to gibi kelimeleri eledik. Ancak bu ilem, tm duraklama kelimelerini elemek iin yeterli olmad.Bu sebeple kendi duraklama kelimelerimizi mystopwords eklinde oluturarak eserden eledik.

En ok Kullanlan Kelimeler

tidy_epicoene %>%
  count(word, sort = TRUE)

## # A tibble: 8,559 x 2
##    word       n
##    <chr>  <int>
##  1 sir      421
##  2 true     323
##  3 cler     225
##  4 daw      185
##  5 mor      160
##  6 daup     159
##  7 jonson   138
##  8 ott      124
##  9 master    82
## 10 time      76
## # ... with 8,549 more rows
…
Duygu Analizi

Nrc

tidy %>% 
  inner_join(get_sentiments("nrc"))

## # A tibble: 3,909 x 3
##    word         n sentiment   
##    <chr>    <int> <chr>       
##  1 sir        421 positive    
##  2 sir        421 trust       
##  3 true       323 joy         
##  4 true       323 positive    
##  5 true       323 trust       
##  6 master      82 positive    
##  7 time        76 anticipation
##  8 john        58 disgust     
##  9 john        58 negative    
## 10 mistress    52 anger       
## # ... with 3,899 more rows
…
AFNN

AFINN <- get_sentiments("afinn")
AFINN

## # A tibble: 2,477 x 2
##    word       value
##    <chr>      <dbl>
##  1 abandon       -2
##  2 abandoned     -2
##  3 abandons      -2
##  4 abducted      -2
##  5 abduction     -2
##  6 abductions    -2
##  7 abhor         -3
##  8 abhorred      -3
##  9 abhorrent     -3
## 10 abhors        -3
## # ... with 2,467 more rows

AFNN szl, kelimeleri duygu younluuna gre -4 ila 4 arasnda numaralandrr.

Bing

tidy %>% 
  inner_join(get_sentiments("bing"))

## # A tibble: 1,244 x 3
##    word          n sentiment
##    <chr>     <int> <chr>    
##  1 master       82 positive 
##  2 mistress     52 negative 
##  3 humour       44 positive 
##  4 love         43 positive 
##  5 faith        34 positive 
##  6 fair         27 positive 
##  7 gold         21 positive 
##  8 noise        21 negative 
##  9 excellent    20 positive 
## 10 worth        20 positive 
## # ... with 1,234 more rows
…
nrc_anger <- get_sentiments("nrc") %>% 
  filter(sentiment == "anger")

tidy_epicoene %>% 
  inner_join(nrc_anger) %>%
  count(word, sort = TRUE)

## # A tibble: 344 x 2
##    word         n
##    <chr>    <int>
##  1 mistress    52
##  2 court       46
##  3 bear        36
##  4 money       20
##  5 haughty     19
##  6 fear        14
##  7 disease     13
##  8 lie         13
##  9 mad         13
## 10 words       12
## # ... with 334 more rows
…
## # A tibble: 1 x 5
##   title                          gutenberg_id positivewords words  ratio
##   <chr>                                 <int>         <int> <int>  <dbl>
## 1 Epicoene; Or, The Silent Woman         4011          1444 22196 0.0651

Ayn ilemi pozitif kelimelerde uyguladmzda orann 0.06 olduunu gryoruz.Buradan da negatif duygunun baskn olduu sonucuna ulayoruz.

NGRAMLAR (n=2)

epicoene_bigrams <- epicoene %>%
  unnest_tokens(bigram, text, token = "ngrams", n = 2)
epicoene_bigrams

## # A tibble: 47,383 x 3
##    gutenberg_id title                          bigram      
##           <int> <chr>                          <chr>       
##  1         4011 Epicoene; Or, The Silent Woman epcoene or 
##  2         4011 Epicoene; Or, The Silent Woman or the      
##  3         4011 Epicoene; Or, The Silent Woman the slent  
##  4         4011 Epicoene; Or, The Silent Woman slent woman
##  5         4011 Epicoene; Or, The Silent Woman <NA>        
##  6         4011 Epicoene; Or, The Silent Woman <NA>        
##  7         4011 Epicoene; Or, The Silent Woman by ben      
##  8         4011 Epicoene; Or, The Silent Woman ben jonson  
##  9         4011 Epicoene; Or, The Silent Woman <NA>        
## 10         4011 Epicoene; Or, The Silent Woman <NA>        
## # ... with 47,373 more rows

n-gram ile n sayda ardk szck dizinini bir araya getiririz. X kelimesinin ardndan Y kelimesinin ne sklkla geldiini grerek, aralarndaki ilikilerin bir modelini oluturabiliriz. n=2 aldmz bu durum bigram olarak adlandrlr.

epicoene_bigrams %>%
  count(bigram, sort = TRUE)

## # A tibble: 29,474 x 2
##    bigram      n
##    <chr>   <int>
##  1 <NA>     3636
##  2 of the    214
##  3 in the    169
##  4 to the    122
##  5 la f      100
##  6 of a       81
##  7 to be      78
##  8  will     71
##  9  have     67
## 10 for the    58
## # ... with 29,464 more rows
…
bigrams_filtered <- bigrams_separated %>%
  filter(!word1 %in% stop_words$word) %>%
  filter(!word2 %in% stop_words$word) %>%
  filter(!word1 %in% mystopwords$word) %>%
  filter(!word2 %in% mystopwords$word)

# new bigram counts:
bigram_counts <- bigrams_filtered %>% 
  count(word1, word2, sort = TRUE)

bigram_counts

## # A tibble: 6,374 x 3
##    word1  word2        n
##    <chr>  <chr>    <int>
##  1 <NA>   <NA>      3636
##  2 sir    john        46
##  3 sir    amorous     37
##  4 sir    dauphine    28
##  5 john   daw         19
##  6 ben    jonson      18
##  7 master truewit     16
##  8 jack   daw         14
##  9 true   nay         14
## 10 master doctor      13
## # ... with 6,364 more rows

seperate, stunlar bir snrlaycya gre birden ok blme ayran bir tidyr fonksiyonudur.Bu fonksiyon ile stunlar ayrdktan sonra durdurma kelimelerini filter ile eledik.Bu eserde karakterlerin en yaygn itfler olduunu syleyebiliriz.

bigrams_united <- bigrams_filtered %>%
  unite(bigram, word1, word2, sep = " ")

bigrams_united

## # A tibble: 10,714 x 3
##    gutenberg_id title                          bigram      
##           <int> <chr>                          <chr>       
##  1         4011 Epicoene; Or, The Silent Woman slent woman
##  2         4011 Epicoene; Or, The Silent Woman NA NA       
##  3         4011 Epicoene; Or, The Silent Woman NA NA       
##  4         4011 Epicoene; Or, The Silent Woman ben jonson  
##  5         4011 Epicoene; Or, The Silent Woman NA NA       
##  6         4011 Epicoene; Or, The Silent Woman NA NA       
##  7         4011 Epicoene; Or, The Silent Woman NA NA       
##  8         4011 Epicoene; Or, The Silent Woman NA NA       
##  9         4011 Epicoene; Or, The Silent Woman NA NA       
## 10         4011 Epicoene; Or, The Silent Woman NA NA       
## # ... with 10,704 more rows
…
(n=3)

epicoene %>%
  unnest_tokens(trigram, text, token = "ngrams", n = 3) %>%
  separate(trigram, c("word1", "word2", "word3"), sep = " ") %>%
  filter(!word1 %in% stop_words$word,
         !word2 %in% stop_words$word,
         !word3 %in% stop_words$word,
         !word1 %in% mystopwords$word,
         !word2 %in% mystopwords$word,
         !word3 %in% mystopwords$word) %>%
  count(word1, word2, word3, sort = TRUE)

## # A tibble: 2,176 x 4
##    word1    word2    word3        n
##    <chr>    <chr>    <chr>    <int>
##  1 <NA>     <NA>     <NA>      4253
##  2 sir      john     daw         15
##  3 gold     coin     worth        5
##  4 haughty  centaure mavs        4
##  5 enter    captan  otter        3
##  6 enter    morose   wth         3
##  7 protest  sir      john         3
##  8 true     alas     sir          3
##  9 centaure mavs    mstress     2
## 10 centaure mistress dol          2
## # ... with 2,166 more rows
…
kili kelime gruplarnda house kelimesini filtreleyerek olayn genel olarak Morose karakterinin evinde getiini gryoruz.

bigram_tf_idf <- bigrams_united %>%
  count(title, bigram) %>%
  bind_tf_idf(bigram, title, n) %>%
  arrange(desc(tf_idf))

bigram_tf_idf

## # A tibble: 6,374 x 6
##    title                          bigram              n        tf   idf tf_idf
##    <chr>                          <chr>           <int>     <dbl> <dbl>  <dbl>
##  1 Epicoene; Or, The Silent Woman __ incidentally     1 0.0000933     0      0
##  2 Epicoene; Or, The Silent Woman 10 shillings        1 0.0000933     0      0
##  3 Epicoene; Or, The Silent Woman 100 variously       1 0.0000933     0      0
##  4 Epicoene; Or, The Silent Woman 1592 jonson         1 0.0000933     0      0
##  5 Epicoene; Or, The Silent Woman 1593 marlowe        1 0.0000933     0      0
##  6 Epicoene; Or, The Silent Woman 1597 paying         1 0.0000933     0      0
##  7 Epicoene; Or, The Silent Woman 1598 jonson         1 0.0000933     0      0
##  8 Epicoene; Or, The Silent Woman 1601 02             1 0.0000933     0      0
##  9 Epicoene; Or, The Silent Woman 1605 volpone        1 0.0000933     0      0
## 10 Epicoene; Or, The Silent Woman 1609 fol            1 0.0000933     0      0
## # ... with 6,364 more rows

bigrams_separated %>%
  filter(word1 == "no") %>%
  count(word1, word2, sort = TRUE)

## # A tibble: 108 x 3
##    word1 word2     n
##    <chr> <chr> <int>
##  1 no            11
##  2 no    more     11
##  3 no    sir       8
##  4 no    man       7
##  5 no    means     7
##  6 no    noise     5
##  7 no    such      5
##  8 no    faith     4
##  9 no    no        4
## 10 no    other     4
## # ... with 98 more rows

kili kelime grubu olan bigramlardan no olumsuzluk kelimesini filtrelediimizde grlt ve inan kelimesi dikkatimizi ekiyor. Eserde grltl ortamlar bulunup bu ortamlarn ho karlanmadn syleyebiliriz.Kelime bulutunda karlatmz inan ve dua etme szcklerine zt olarak burada inan kelimesi olumsuz bir durum olarak sonu verdi.Bu da bize karakterlerin belli bir inanca sahip olduu genellemesini yapamayacamz gsteriyor.

not_words <- bigrams_separated %>%
  filter(word1 == "not") %>%
  inner_join(AFINN, by = c(word2 = "word")) %>%
  count(word2, value, sort = TRUE)
not_words

## # A tibble: 29 x 3
##    word2        value     n
##    <chr>        <dbl> <int>
##  1 doubt           -1     2
##  2 fail            -2     2
##  3 fear            -2     2
##  4 leave           -1     2
##  5 refuse          -2     2
##  6 trouble         -2     2
##  7 absolve          2     1
##  8 allow            1     1
##  9 applaud          2     1
## 10 apprehensive    -2     1
## # ... with 19 more rows
…
negation_words <- c("not", "no", "never", "without")

negated_words <- bigrams_separated %>%
  filter(word1 %in% negation_words) %>%
  inner_join(AFINN, by = c(word2 = "word")) %>%
  count(word1, word2, value, sort = TRUE)
negated_words

## # A tibble: 51 x 4
##    word1 word2   value     n
##    <chr> <chr>   <dbl> <int>
##  1 no    faith       1     4
##  2 no    no         -1     4
##  3 no    comfort     2     2
##  4 no    matter      1     2
##  5 no    noble       2     2
##  6 not   doubt      -1     2
##  7 not   fail       -2     2
##  8 not   fear       -2     2
##  9 not   leave      -1     2
## 10 not   refuse     -2     2
## # ... with 41 more rows
…
epicoene_section_words <- epicoene %>%
  mutate(section = row_number() %/% 10) %>%
  filter(section > 0) %>%
  unnest_tokens(word, text) %>%
  filter(!word %in% stop_words$word)

epicoene_section_words

## # A tibble: 23,338 x 4
##    gutenberg_id title                          section word        
##           <int> <chr>                            <dbl> <chr>       
##  1         4011 Epicoene; Or, The Silent Woman       1 ntroducton
##  2         4011 Epicoene; Or, The Silent Woman       1 english     
##  3         4011 Epicoene; Or, The Silent Woman       1 dramatists  
##  4         4011 Epicoene; Or, The Silent Woman       1 shakespeare 
##  5         4011 Epicoene; Or, The Silent Woman       1 literary    
##  6         4011 Epicoene; Or, The Silent Woman       1 dictator    
##  7         4011 Epicoene; Or, The Silent Woman       1 poet        
##  8         4011 Epicoene; Or, The Silent Woman       1 laureate    
##  9         4011 Epicoene; Or, The Silent Woman       1 writer      
## 10         4011 Epicoene; Or, The Silent Woman       1 verse       
## # ... with 23,328 more rows

Burada eseri 10ar satrlk blmlere ayrdk ve hangi kelimelerin grnme eiliminde olduunu analiz ettik.

library(widyr)
word_pairs <- epicoene_section_words %>%
  anti_join(mystopwords) %>%
  pairwise_count(word, section, sort = TRUE) 
word_pairs

## # A tibble: 438,602 x 3
##    item1 item2     n
##    <chr> <chr> <dbl>
##  1 sir   true    115
##  2 true  sir     115
##  3 daw   sir      82
##  4 sir   daw      82
##  5 mor   sir      79
##  6 sir   mor      79
##  7 cler  true     78
##  8 cler  sir      78
##  9 true  cler     78
## 10 sir   cler     78
## # ... with 438,592 more rows

Widyr paketinin yararl bir ilevi olan pairwise_count() fonksiyonu bize ayn blmlerde ilikili 2li kelimeleri, kullanlma sklna gre grntleme olana salar.Tablodan da karakterler aras diyaloglarn sklk saylarn grebiliriz.

word_pairs %>%
  filter(item1 == "morose")

## # A tibble: 363 x 3
##    item1  item2      n
##    <chr>  <chr>  <dbl>
##  1 morose sir       11
##  2 morose hau       11
##  3 morose mor       10
##  4 morose true       9
##  5 morose ep        9
##  6 morose enter      8
##  7 morose madam      8
##  8 morose master     7
##  9 morose wth       6
## 10 morose cen        6
## # ... with 353 more rows

2li kelimelerden Morose karakterini filtrelediimizde bu karakterin en ok ilikili olduu karakterleri grmemiz mmkndr.

word_cors <- epicoene_section_words %>%
  group_by(word) %>%
  filter(n() >= 20) %>%
  pairwise_cor(word, section, sort = TRUE)

word_cors

## # A tibble: 11,772 x 3
##    item1 item2 correlation
##    <chr> <chr>       <dbl>
##  1 cen   hau         0.604
##  2 hau   cen         0.604
##  3 hau   madam       0.581
##  4 madam hau         0.581
##  5 foole la          0.554
##  6 la    foole       0.554
##  7 coin  worth       0.512
##  8 worth coin        0.512
##  9 thee  thou        0.490
## 10 thou  thee        0.490
## # ... with 11,762 more rows

pairwise_cor fonksiyonu, bize ikili korelasyon iin ortak bir l olan phi katsaysn verir.Phi katsays, ikili verilere uygulandnda, Pearson korelasyonuna edeerdir. Korelasyon katsaylar arttka ikili karakter ilikilerini sk bir ekilde gryoruz.Buradan da eserde diyaloglarn sk olduunu anlamamz mmkndr.

word_cors %>%
  filter(item1 == "ep")

## # A tibble: 108 x 3
##    item1 item2    correlation
##    <chr> <chr>          <dbl>
##  1 ep   mor            0.305
##  2 ep   morose         0.217
##  3 ep   servant        0.202
##  4 ep   hau            0.185
##  5 ep   mistress       0.167
##  6 ep                 0.161
##  7 ep   pray           0.159
##  8 ep   lady           0.146
##  9 ep   cutbeard       0.134
## 10 ep   ladies         0.126
## # ... with 98 more rows
…
