venice
…
Ktphaneler

library(tidytext)
library(dplyr)
library(tidyverse)
library(gutenbergr)
library(tidyr)  # Dzenli veri oluturma
library(stopwords) # stenmeyen kelimeleri kartma
library(ggplot2)
library(wordcloud) # Kelime Bulutu
library(wordcloud2) #Kelime Bulutu

gutenberg_metadata

## # A tibble: 51,997 x 8
##    gutenberg_id title author gutenberg_autho~ language gutenberg_books~ rights
##           <int> <chr> <chr>             <int> <chr>    <chr>            <chr> 
##  1            0  <NA> <NA>                 NA en       <NA>             Publi~
##  2            1 "The~ Jeffe~             1638 en       United States L~ Publi~
##  3            2 "The~ Unite~                1 en       American Revolu~ Publi~
##  4            3 "Joh~ Kenne~             1666 en       <NA>             Publi~
##  5            4 "Lin~ Linco~                3 en       US Civil War     Publi~
##  6            5 "The~ Unite~                1 en       American Revolu~ Publi~
##  7            6 "Giv~ Henry~                4 en       American Revolu~ Publi~
##  8            7 "The~ <NA>                 NA en       <NA>             Publi~
##  9            8 "Abr~ Linco~                3 en       US Civil War     Publi~
## 10            9 "Abr~ Linco~                3 en       US Civil War     Publi~
## # ... with 51,987 more rows, and 1 more variable: has_text <lgl>
…
Duraklama Kelimeleri

mystopwords <- tibble(word = c("","thou","thee","f","thy","n","'ll","s","t"))

tidy_venice <- venice %>%
  unnest_tokens(word, text) %>%
   anti_join(stop_words) %>%
  anti_join(mystopwords)

En ok Kullanlan Kelimeler

tidy_venice %>%
  count(word, sort = TRUE)

## # A tibble: 2,908 x 2
##    word          n
##    <chr>     <int>
##  1 porta      129
##  2 shylock     106
##  3 bassano     84
##  4 launcelot    83
##  5 lorenzo      81
##  6 love         60
##  7 gratano     59
##  8 jew          59
##  9 antono      57
## 10 hath         52
## # ... with 2,898 more rows
…
Duygu Analizi

Nrc

tidy %>% 
  inner_join(get_sentiments("nrc"))

## Joining, by = "word"

## # A tibble: 1,829 x 3
##    word      n sentiment   
##    <chr> <int> <chr>       
##  1 love     60 joy         
##  2 love     60 positive    
##  3 lord     45 disgust     
##  4 lord     45 negative    
##  5 lord     45 positive    
##  6 lord     45 trust       
##  7 pray     42 anticipation
##  8 pray     42 fear        
##  9 pray     42 joy         
## 10 pray     42 positive    
## # ... with 1,819 more rows
…
Bing

tidy %>% 
  inner_join(get_sentiments("bing"))

## Joining, by = "word"

## # A tibble: 550 x 3
##    word        n sentiment
##    <chr>   <int> <chr>    
##  1 love       60 positive 
##  2 fair       35 positive 
##  3 master     32 positive 
##  4 sweet      23 positive 
##  5 fortune    21 positive 
##  6 heaven     16 positive 
##  7 fear       15 negative 
##  8 gold       15 positive 
##  9 devil      14 negative 
## 10 faith      14 positive 
## # ... with 540 more rows
…
nrc_joy <- get_sentiments("nrc") %>% 
  filter(sentiment == "joy")

tidy_venice %>% 
  inner_join(nrc_joy) %>%
  count(word, sort = TRUE)

## Joining, by = "word"

## # A tibble: 143 x 2
##    word         n
##    <chr>    <int>
##  1 love        60
##  2 pray        42
##  3 friend      31
##  4 true        24
##  5 sweet       23
##  6 daughter    21
##  7 fortune     21
##  8 god         18
##  9 music       17
## 10 money       15
## # ... with 133 more rows
…
Olumsuzluk

bingnegative <- get_sentiments("bing") %>% 
  filter(sentiment == "negative")
bingnegative

## # A tibble: 4,781 x 2
##    word        sentiment
##    <chr>       <chr>    
##  1 2-faces     negative 
##  2 abnormal    negative 
##  3 abolish     negative 
##  4 abominable  negative 
##  5 abominably  negative 
##  6 abominate   negative 
##  7 abomination negative 
##  8 abort       negative 
##  9 aborted     negative 
## 10 aborts      negative 
## # ... with 4,771 more rows
…
## `summarise()` regrouping output by 'title' (override with `.groups` argument)

## # A tibble: 1 x 5
##   title                  gutenberg_id negativewords words  ratio
##   <chr>                         <int>         <int> <int>  <dbl>
## 1 The Merchant of Venice         1515           737  8332 0.0885

Bu kitapta duygu analizi yapldnda en olumsuz olan blmn oran 0.078 bulundu.

bingpositive <- get_sentiments("bing") %>% 
  filter(sentiment == "positive")
bingpositive

## # A tibble: 2,005 x 2
##    word        sentiment
##    <chr>       <chr>    
##  1 abound      positive 
##  2 abounds     positive 
##  3 abundance   positive 
##  4 abundant    positive 
##  5 accessable  positive 
##  6 accessible  positive 
##  7 acclaim     positive 
##  8 acclaimed   positive 
##  9 acclamation positive 
## 10 accolade    positive 
## # ... with 1,995 more rows
…
## `summarise()` regrouping output by 'title' (override with `.groups` argument)

## # A tibble: 1 x 5
##   title                  gutenberg_id positivewords words  ratio
##   <chr>                         <int>         <int> <int>  <dbl>
## 1 The Merchant of Venice         1515           690  8332 0.0828

NGRAMLAR (n=2)

venice_bigrams <- venice %>%
  unnest_tokens(bigram, text, token = "ngrams", n = 2)
venice_bigrams

## # A tibble: 20,448 x 3
##    gutenberg_id title                  bigram             
##           <int> <chr>                  <chr>              
##  1         1515 The Merchant of Venice the merchant       
##  2         1515 The Merchant of Venice merchant of        
##  3         1515 The Merchant of Venice of vence          
##  4         1515 The Merchant of Venice <NA>               
##  5         1515 The Merchant of Venice by william         
##  6         1515 The Merchant of Venice william shakespeare
##  7         1515 The Merchant of Venice <NA>               
##  8         1515 The Merchant of Venice <NA>               
##  9         1515 The Merchant of Venice <NA>               
## 10         1515 The Merchant of Venice <NA>               
## # ... with 20,438 more rows

venice_bigrams %>%
  count(bigram, sort = TRUE)

## # A tibble: 12,854 x 2
##    bigram      n
##    <chr>   <int>
##  1 <NA>     1510
##  2  am       70
##  3  will     53
##  4 of the     52
##  5  have     51
##  6 in the     51
##  7 of my      35
##  8  pray     34
##  9 my lord    28
## 10 you are    28
## # ... with 12,844 more rows
…
bigrams_filtered <- bigrams_separated %>%
  filter(!word1 %in% stop_words$word) %>%
  filter(!word2 %in% stop_words$word) %>%
  filter(!word1 %in% mystopwords$word) %>%
  filter(!word2 %in% mystopwords$word)

# new bigram counts:
bigram_counts <- bigrams_filtered %>% 
  count(word1, word2, sort = TRUE)

bigram_counts

## # A tibble: 1,520 x 3
##    word1     word2         n
##    <chr>     <chr>     <int>
##  1 <NA>      <NA>       1510
##  2 thousand  ducats       16
##  3 lord      bassanio      9
##  4 porta's  house         7
##  5 enter     porta        6
##  6 enter     bassano      5
##  7 launcelot gobbo         5
##  8 master    launcelot     5
##  9 signior   antonio       5
## 10 dear      friend        4
## # ... with 1,510 more rows

bigrams_united <- bigrams_filtered %>%
  unite(bigram, word1, word2, sep = " ")

bigrams_united

## # A tibble: 3,200 x 3
##    gutenberg_id title                  bigram             
##           <int> <chr>                  <chr>              
##  1         1515 The Merchant of Venice NA NA              
##  2         1515 The Merchant of Venice william shakespeare
##  3         1515 The Merchant of Venice NA NA              
##  4         1515 The Merchant of Venice NA NA              
##  5         1515 The Merchant of Venice NA NA              
##  6         1515 The Merchant of Venice NA NA              
##  7         1515 The Merchant of Venice dramats personae  
##  8         1515 The Merchant of Venice NA NA              
##  9         1515 The Merchant of Venice morocco suitor     
## 10         1515 The Merchant of Venice arragon suitor     
## # ... with 3,190 more rows

(n=3)

venice %>%
  unnest_tokens(trigram, text, token = "ngrams", n = 3) %>%
  separate(trigram, c("word1", "word2", "word3"), sep = " ") %>%
  filter(!word1 %in% stop_words$word,
         !word2 %in% stop_words$word,
         !word3 %in% stop_words$word,
         !word1 %in% mystopwords$word,
         !word2 %in% mystopwords$word,
         !word3 %in% mystopwords$word) %>%
  count(word1, word2, word3, sort = TRUE)

## # A tibble: 305 x 4
##    word1     word2   word3         n
##    <chr>     <chr>   <chr>     <int>
##  1 <NA>      <NA>    <NA>       1572
##  2 ding      dong    bell          2
##  3 judge     mark    jew           2
##  4 lorenzo   fare    ye            2
##  5 scene     2       belmont       2
##  6 scene     3       venice        2
##  7 adieu     tears   exhibit       1
##  8 aforesaid honest  launcelot     1
##  9 alas      fifteen wives         1
## 10 ancient   roman   honour        1
## # ... with 295 more rows
…
## # A tibble: 1 x 3
##   title                  word1      n
##   <chr>                  <chr>  <int>
## 1 The Merchant of Venice public     1

bigram_tf_idf <- bigrams_united %>%
  count(title, bigram) %>%
  bind_tf_idf(bigram, title, n) %>%
  arrange(desc(tf_idf))

bigram_tf_idf

## # A tibble: 1,520 x 6
##    title                  bigram               n       tf   idf tf_idf
##    <chr>                  <chr>            <int>    <dbl> <dbl>  <dbl>
##  1 The Merchant of Venice 2 belmont            2 0.000625     0      0
##  2 The Merchant of Venice 2 venice             1 0.000312     0      0
##  3 The Merchant of Venice 3 venice             2 0.000625     0      0
##  4 The Merchant of Venice 4 belmont            1 0.000312     0      0
##  5 The Merchant of Venice 7 belmont            1 0.000312     0      0
##  6 The Merchant of Venice 8 venice             1 0.000312     0      0
##  7 The Merchant of Venice 9 belmont            1 0.000312     0      0
##  8 The Merchant of Venice a'leven widows       1 0.000312     0      0
##  9 The Merchant of Venice acquaintance hie     1 0.000312     0      0
## 10 The Merchant of Venice act 1                1 0.000312     0      0
## # ... with 1,510 more rows

bigrams_separated %>%
  filter(word1 == "not") %>%
  count(word1, word2, sort = TRUE)

## # A tibble: 122 x 3
##    word1 word2     n
##    <chr> <chr> <int>
##  1 not   a         7
##  2 not   to        7
##  3 not   for       6
##  4 not   in        6
##  5 not   that      6
##  6 not   the       6
##  7 not   be        5
##  8 not   so        5
##  9 not            4
## 10 not   me        4
## # ... with 112 more rows

AFINN <- get_sentiments("afinn")
AFINN

## # A tibble: 2,477 x 2
##    word       value
##    <chr>      <dbl>
##  1 abandon       -2
##  2 abandoned     -2
##  3 abandons      -2
##  4 abducted      -2
##  5 abduction     -2
##  6 abductions    -2
##  7 abhor         -3
##  8 abhorred      -3
##  9 abhorrent     -3
## 10 abhors        -3
## # ... with 2,467 more rows
…
negation_words <- c("not", "no", "never", "without")

negated_words <- bigrams_separated %>%
  filter(word1 %in% negation_words) %>%
  inner_join(AFINN, by = c(word2 = "word")) %>%
  count(word1, word2, value, sort = TRUE)
negated_words

## # A tibble: 34 x 4
##    word1 word2  value     n
##    <chr> <chr>  <dbl> <int>
##  1 no    no        -1     3
##  2 not   deny      -2     3
##  3 no    better     2     2
##  4 not   fail      -2     2
##  5 not   love       3     2
##  6 not   sad       -2     2
##  7 never grant      1     1
##  8 never merry      3     1
##  9 never trust      1     1
## 10 no    doubt     -1     1
## # ... with 24 more rows
…
## The following objects are masked from 'package:dplyr':
## 
##     as_data_frame, groups, union

## The following objects are masked from 'package:stats':
## 
##     decompose, spectrum

## The following object is masked from 'package:base':
## 
##     union

bigram_counts

## # A tibble: 1,520 x 3
##    word1     word2         n
##    <chr>     <chr>     <int>
##  1 <NA>      <NA>       1510
##  2 thousand  ducats       16
##  3 lord      bassanio      9
##  4 porta's  house         7
##  5 enter     porta        6
##  6 enter     bassano      5
##  7 launcelot gobbo         5
##  8 master    launcelot     5
##  9 signior   antonio       5
## 10 dear      friend        4
## # ... with 1,510 more rows
…
venice_section_words <- venice %>%
  mutate(section = row_number() %/% 10) %>%
  filter(section > 0) %>%
  unnest_tokens(word, text) %>%
  filter(!word %in% stop_words$word)

venice_section_words

## # A tibble: 9,394 x 4
##    gutenberg_id title                  section word   
##           <int> <chr>                    <dbl> <chr>  
##  1         1515 The Merchant of Venice       1 duke   
##  2         1515 The Merchant of Venice       1 vence 
##  3         1515 The Merchant of Venice       1 prnce 
##  4         1515 The Merchant of Venice       1 morocco
##  5         1515 The Merchant of Venice       1 suitor 
##  6         1515 The Merchant of Venice       1 portia 
##  7         1515 The Merchant of Venice       1 prnce 
##  8         1515 The Merchant of Venice       1 arragon
##  9         1515 The Merchant of Venice       1 suitor 
## 10         1515 The Merchant of Venice       1 portia 
## # ... with 9,384 more rows
…
## Warning: `distinct_()` is deprecated as of dplyr 0.7.0.
## Please use `distinct()` instead.
## See vignette('programming') for more help
## This warning is displayed once every 8 hours.
## Call `lifecycle::last_warnings()` to see where this warning was generated.

## Warning: `tbl_df()` is deprecated as of dplyr 1.0.0.
## Please use `tibble::as_tibble()` instead.
## This warning is displayed once every 8 hours.
## Call `lifecycle::last_warnings()` to see where this warning was generated.

word_pairs

## # A tibble: 146,250 x 3
##    item1    item2        n
##    <chr>    <chr>    <dbl>
##  1         porta      80
##  2 porta              80
##  3         shylock     60
##  4 shylock             60
##  5         bassano    52
##  6 bassano            52
##  7 thou                47
##  8         thou        47
##  9 thee                43
## 10         thee        43
## # ... with 146,240 more rows

word_pairs %>%
  filter(item1 == "porta")

## # A tibble: 929 x 3
##    item1  item2        n
##    <chr>  <chr>    <dbl>
##  1 porta            80
##  2 porta nerssa     30
##  3 porta shylock     20
##  4 porta bassano    18
##  5 porta hath        15
##  6 porta jew         14
##  7 porta thou        14
##  8 porta doth        14
##  9 porta thee        13
## 10 porta gratano    12
## # ... with 919 more rows

word_cors <- venice_section_words %>%
  group_by(word) %>%
  filter(n() >= 20) %>%
  pairwise_cor(word, section, sort = TRUE)

word_cors

## # A tibble: 4,692 x 3
##    item1     item2     correlation
##    <chr>     <chr>           <dbl>
##  1 ducats    thousand        0.769
##  2 thousand  ducats          0.769
##  3 gobbo     launcelot       0.604
##  4 launcelot gobbo           0.604
##  5 salarno  salano         0.557
##  6 salano   salarno        0.557
##  7 thy       thou            0.488
##  8 thou      thy             0.488
##  9 enter     scene           0.467
## 10 scene     enter           0.467
## # ... with 4,682 more rows

word_cors %>%
  filter(item1 == "gobbo")

## # A tibble: 68 x 3
##    item1 item2     correlation
##    <chr> <chr>           <dbl>
##  1 gobbo launcelot      0.604 
##  2 gobbo father         0.440 
##  3 gobbo master         0.338 
##  4 gobbo sir            0.196 
##  5 gobbo pray           0.156 
##  6 gobbo friend         0.103 
##  7 gobbo jew            0.0572
##  8 gobbo mine           0.0476
##  9 gobbo thy            0.0395
## 10 gobbo exeunt         0.0317
## # ... with 58 more rows
…
